# sorting example: place data in order of occurence#
#
library(sunburstR)#
#
df <- data.frame(#
  group = c("foo", "bar", "xyz"),#
  value = c(1, 3, 2)#
)#
#
sunburst(df,#
         # create a trivial sort function#
         sortFunction = htmlwidgets::JS('function(x) {return x;}'))#
#
new_order <- c(3,2,1)#
sunburst(df[new_order,],#
         sortFunction = htmlwidgets::JS('function(x) {return x;}'))
MyColor1 <- "#9b010a" # Deletions  (Red)#
MyColor2 <- "#01579b" # Insertions (Blue)
MyAspectRatio  <- 0.1                     # The closer to 1 the more close to a square each plot will look like#
MyTransparency <- 0.4                     # The closer to one the less transparent this will be#
MyBy           <- 500                     # Length bertween labels on the x-axis#
MySmoothMethod <- "gam"                   # loess (<1,000 point) or gam (>=1,000 points)#
MyPlotFormat   <- "png"                   # pdf or png
MyTitle        <- "Length of Type (bp)" # This will be the title of your plot
setwd("~/Documents/GitLab/plotindels")
library(ggplot2)#
library(scales)#
library(gridExtra)
df <- read.csv(fileName) # original dataframe
fileName <- "data.csv"
df <- read.csv(fileName) # original dataframe
ag <- aggregate(df$Count, by=list(Category=df$Source), FUN=sum)
ag <- reorder(ag$Category, ag$x)
levels(df$Source) <- levels(ag)
XRange <- min(df$Position) : max(df$Position)
df$Length <- abs(df$Length)
nz <- subset(df, Length != 0.0)
ggplot(ag) + geom_histogram
ag
ag <- aggregate(df$Count, by=list(Category=df$Source), FUN=sum)
ggplot(ag) + geom_histogram
ggplot(ag) + geom_histogram()
ag <- aggregate(df$Count, by=list(Category=df$Source), FUN=sum)
or <- reorder(ag$Category, ag$x)
levels(df$Source) <- levels(or)
ggplot(ag, aes(x = Category, y = x)) + geom_histogram()
ggplot(ag, aes(x = Category)) + geom_histogram()
ag
ggplot(ag, aes(x = x)) + geom_histogram()
ag$Category
ag$x
ag <- data.frame(ag)
ag
df <- read.csv(fileName) # original dataframe
ag <- aggregate(df$Count, by=list(Category=df$Source), FUN=sum)
ag <- data.frame(ag)
or <- reorder(ag$Category, ag$x)
levels(df$Source) <- levels(or)
p <- ggplot(ag, aes(x = x)) + geom_histogram()
p
p <- ggplot(ag, aes(x = x)) + geom_histogram(color = "black", fill = Category, binwidth = 1)
p <- ggplot(ag, aes(x = x, color = "black", fill = Category)) + geom_histogram(binwidth = 1)
p
p
p <- ggplot(ag, aes(x = x, fill = Category)) + geom_histogram(binwidth = 1)#
p
p <- ggplot(ag, aes(x = Category, y = x, fill = Category)) + geom_bar()#
p
p <- ggplot(ag, aes(x = Category, y = x, fill = Category)) + geom_bar()#
p
p <- ggplot(ag, aes(x = Category, y = x, fill = Category)) + geom_bar(stat = "identity")#
p
df <- read.csv(fileName) # original dataframe
ag <- aggregate(df$Count, by=list(Category=df$Source), FUN=sum)#
ag <- data.frame(ag)#
or <- reorder(ag$Category, ag$x)#
levels(df$Source) <- levels(or)
p <- ggplot(ag, aes(x = Category, y = x, fill = Category)) + geom_bar(stat = "identity")
p
p <- ggplot(ag, aes(x = Category, y = x)) + geom_bar(stat = "identity") + theme_linedraw()
p
p <- ggplot(ag, aes(x = Category, y = x))#
p <- p + geom_bar(stat = "identity")#
p <- p + theme_linedraw()#
p
p <- ggplot(ag, aes(x = Category, y = x))#
p <- p + geom_bar(stat = "identity")#
p <- p + geom_text(aes(label=len), vjust=1.6, color="white", size=3.5)#
p <- p + theme_linedraw()#
p
p <- ggplot(ag, aes(x = Category, y = x))#
p <- p + geom_bar(stat = "identity")#
p <- p + geom_text(aes(label = x), vjust = 1.6, color = "white", size = 3.5)#
p <- p + theme_linedraw()#
p
# Reading csv file into dataframe:#
df <- read.csv(fileName) # original dataframe#
#
# Reordering dataframe based on sum of InDel lengths:#
ag <- aggregate(df$Count, by=list(Category=df$Source), FUN=sum)#
ag <- data.frame(ag)#
or <- reorder(ag$Category, ag$x)#
levels(df$Source) <- levels(or)
p <- ggplot(ag, aes(x = Category, y = x))#
p <- p + geom_bar(stat = "identity")#
p <- p + geom_text(aes(label = x), vjust = 1.6, color = "white", size = 3.5)#
p <- p + theme_linedraw()#
p
p <- ggplot(ag, aes(x = Category, y = x))#
p <- p + geom_bar(stat = "identity")#
p <- p + theme_linedraw()#
p
p <- ggplot(ag, aes(x = Category, y = x))#
p <- p + geom_bar(stat = "identity")#
p <- p + scale_fill_brewer(palette = "Dark2")#
p <- p + theme_linedraw()#
p
p <- ggplot(ag, aes(x = Category, y = x))#
p <- p + geom_bar(stat = "identity")#
p <- p + theme_linedraw()#
p
# Reading csv file into dataframe:#
df <- read.csv(fileName) # original dataframe#
#
# Reordering dataframe based on sum of InDel lengths:#
ag <- aggregate(df$Count, by=list(Category=df$Source), FUN=sum)#
ag <- data.frame(ag)#
or <- reorder(ag$Category, ag$x)#
levels(df$Source) <- levels(or)#
#
p <- ggplot(ag, aes(x = Category, y = x))#
p <- p + geom_bar(stat = "identity")#
p <- p + theme_linedraw()#
p
# Reading csv file into dataframe:#
df <- read.csv(fileName) # original dataframe#
#
# Reordering dataframe based on sum of InDel lengths:#
ag <- aggregate(df$Count, by=list(Category=df$Source), FUN=sum)#
ag <- data.frame(ag)#
or <- reorder(ag$Category, ag$x)#
levels(df$Source) <- levels(or)#
#
p <- ggplot(ag, aes(x = Category, y = x))#
p <- p + geom_bar(stat = "identity")#
p <- p + scale_fill_brewer(palette = "Dark2")#
p <- p + theme_linedraw()#
p
df <- read.csv(fileName) # original dataframe#
#
# Reordering dataframe based on sum of InDel lengths:#
ag <- aggregate(df$Count, by=list(Category=df$Source), FUN=sum)#
ag <- data.frame(ag)#
or <- reorder(ag$Category, ag$x)#
levels(df$Source) <- levels(or)#
#
p <- ggplot(ag, aes(x = Category, y = x))#
p <- p + geom_bar(stat = "identity")#
p <- p + theme_linedraw()#
p
# Reading csv file into dataframe:#
df <- read.csv(fileName) # original dataframe#
#
# Reordering dataframe based on sum of InDel lengths:#
ag <- aggregate(df$Count, by=list(Category=df$Source), FUN=sum)#
ag <- data.frame(ag)#
or <- reorder(ag$Category, ag$x)#
levels(df$Source) <- levels(or)#
#
p <- ggplot(ag, aes(x = Category, y = x))#
p <- p + geom_bar(stat = "identity")#
p <- p + theme_linedraw()#
p
# Reading csv file into dataframe:#
df <- read.csv(fileName) # original dataframe#
#
# Reordering dataframe based on sum of InDel lengths:#
ag <- aggregate(df$Count, by=list(Category=df$Source), FUN=sum)#
ag <- data.frame(ag)#
or <- reorder(ag$Category, ag$x)#
levels(df$Source) <- levels(or)#
#
p <- ggplot(ag, aes(x = Category, y = x))#
p <- p + geom_bar(stat = "identity")#
p <- p + scale_x_discrete("")#
p <- p + scale_y_continuous("Gap opennings")#
p <- p + theme_linedraw()#
p
barPlot <- function() {#
	p <- ggplot(ag, aes(x = Category, y = x))#
	p <- p + geom_bar(stat = "identity")#
	p <- p + scale_x_discrete("")#
	p <- p + scale_y_continuous("Gap opennings")#
	p <- p + theme_linedraw()#
	q <- ggplot(ag, aes(x = Category, y = x))#
	q <- q + geom_bar(stat = "identity")#
	q <- q + scale_x_discrete("")#
	q <- q + scale_y_continuous("InDel length")#
	q <- q + theme_linedraw()#
#
grid.arrange(p, q, ncol=2) # print one image in one column#
#
}
barPlot
barPlot <- function() {#
	p <- ggplot(ag, aes(x = Category, y = x))#
	p <- p + geom_bar(stat = "identity")#
	p <- p + scale_x_discrete("")#
	p <- p + scale_y_continuous("Gap opennings")#
	p <- p + theme_linedraw()#
	q <- ggplot(ag, aes(x = Category, y = x))#
	q <- q + geom_bar(stat = "identity")#
	q <- q + scale_x_discrete("")#
	q <- q + scale_y_continuous("InDel length")#
	q <- q + theme_linedraw()#
#
# grid.arrange(p, q, ncol=2) # print one image in one column#
#
q#
#
}
barPlot
